<?xml version="1.0" encoding="UTF-8" standalone="no"?>
<svg
   xmlns:osb="http://www.openswatchbook.org/uri/2009/osb"
   xmlns:dc="http://purl.org/dc/elements/1.1/"
   xmlns:cc="http://creativecommons.org/ns#"
   xmlns:rdf="http://www.w3.org/1999/02/22-rdf-syntax-ns#"
   xmlns:svg="http://www.w3.org/2000/svg"
   xmlns="http://www.w3.org/2000/svg"
   xmlns:sodipodi="http://sodipodi.sourceforge.net/DTD/sodipodi-0.dtd"
   xmlns:inkscape="http://www.inkscape.org/namespaces/inkscape"
   version="1.1"
   width="476.3486"
   height="286.479"
   id="svg4849"
   viewBox="0 0 476.3486 286.47901"
   sodipodi:docname="Logotipo Cinza - Central do Menu.svg"
   inkscape:version="0.92.1 r15371"
   inkscape:export-filename="E:\GoogleDrive\3Lobos • Novels\• Logotipos &amp; Redes Sociais\Logotipos\Logo Branco Transparente 150x125.png"
   inkscape:export-xdpi="30.341808"
   inkscape:export-ydpi="30.341808">
  <metadata
     id="metadata4855">
    <rdf:RDF>
      <cc:Work
         rdf:about="">
        <dc:format>image/svg+xml</dc:format>
        <dc:type
           rdf:resource="http://purl.org/dc/dcmitype/StillImage" />
        <dc:title></dc:title>
      </cc:Work>
    </rdf:RDF>
  </metadata>
  <defs
     id="defs4853">
    <linearGradient
       id="linearGradient6527"
       osb:paint="solid">
      <stop
         style="stop-color:#735900;stop-opacity:1;"
         offset="0"
         id="stop6525" />
    </linearGradient>
    <linearGradient
       id="linearGradient6519"
       osb:paint="solid">
      <stop
         style="stop-color:#735900;stop-opacity:1;"
         offset="0"
         id="stop6517" />
    </linearGradient>
  </defs>
  <sodipodi:namedview
     pagecolor="#ffffff"
     bordercolor="#666666"
     borderopacity="1"
     objecttolerance="10"
     gridtolerance="10"
     guidetolerance="10"
     inkscape:pageopacity="0"
     inkscape:pageshadow="2"
     inkscape:window-width="1366"
     inkscape:window-height="705"
     id="namedview4851"
     showgrid="false"
     showguides="true"
     inkscape:guide-bbox="true"
     inkscape:zoom="0.81359585"
     inkscape:cx="240.93431"
     inkscape:cy="108.38364"
     inkscape:window-x="-8"
     inkscape:window-y="-8"
     inkscape:window-maximized="1"
     inkscape:current-layer="svg4849"
     inkscape:showpageshadow="false"
     showborder="true" />
  <g
     id="g5432"
     transform="translate(-130.32964,-160.2298)"
     style="fill:#343737;fill-opacity:0.98823529">
    <path
       d="m 364.52874,403.166 -7.8041,43.5428 -93.3589,-100.3605 -91.608,-22.7567 -26.6781,-39.4529 11.5626,-9.563 -4.4623,-15.6933 74.426,-11.7277 23.3396,-37.3438 15.1711,-1.1669 -2.1885,-40.6976 13.4099,19.613 3.9469,-27.3296 57.5907,54.7642 -6.279,6.7575 -45.2177,-41.1017 -2.0075,18.6594 -7.585,50.6175 13.8572,23.3408 12.2538,-2.6262 -20.4222,17.505 12.8367,23.9236 -17.5044,19.8383 48.5016,46.8319 -9.1163,-28.9631 24.3612,53.0984 c 0,0 23.0473,5e-4 22.9747,0.2906 z M 240.14754,235.8306 h 21.2368 l -6.678,10.5119 h -21.2368 z m 256.752,0 h -21.2367 l 6.678,10.5119 h 21.2367 z m -344.7196,23.0518 4.4623,15.6933 -11.5626,9.563 -1.7963,-2.6568 -12.9537,-19.1566 20.2288,-3.1875 z m 4.4623,15.6933 -4.4623,-15.6933 4.4623,15.6933 -11.5626,9.563 z m 215.837,128.5903 7.8041,43.5428 93.3589,-100.3605 91.608,-22.7567 27.7286,-41.0069 -9.6827,-8.009 4.3368,-15.2517 -77.2309,-12.1693 -23.3396,-37.3438 -15.1711,-1.1669 2.1885,-40.6976 -13.41,19.613 -3.9468,-27.3296 -57.5907,54.7642 6.279,6.7575 45.2177,-41.1017 2.0075,18.6594 7.585,50.6175 -13.8572,23.3408 -12.2539,-2.6262 20.4223,17.505 -12.8367,23.9236 17.5044,19.8383 -48.5016,46.8319 9.1163,-28.9631 -24.3613,53.0984 c 0,0 -23.0473,5e-4 -22.9746,0.2906 z m 220.4996,-120.5813 2.9394,-4.3464 10.76,-15.913 -16.1076,-2.5382 -2.9377,-0.4631 -4.3368,15.2517 z m -210.3651,109.84 3.6466,-15.754 -5.2511,-5.3976 h -12.1721 -12.9826 l -5.2511,5.3976 3.6466,15.754 3.209,2.3339 10.9729,0.1248 10.9728,-0.1248 z"
       style="fill:#343737;fill-opacity:0.98823529;fill-rule:evenodd"
       id="path4842"
       inkscape:connector-curvature="0" />
    <path
       d="m 398.6252,298.5285 26.7883,-6.8749 -10.1251,14.7495 -23.7881,2.8749 z"
       style="fill:#343737;fill-opacity:0.98823529;fill-rule:evenodd"
       id="path4844"
       inkscape:connector-curvature="0" />
    <path
       d="m 338.288,298.5285 -26.7883,-6.8749 10.1251,14.7495 23.7881,2.8749 z"
       style="fill:#343737;fill-opacity:0.98823529;fill-rule:evenodd"
       id="path4846"
       inkscape:connector-curvature="0" />
  </g>
</svg>
